@relation InstanceResultListener

@attribute Key_Dataset {train}
@attribute Key_Run {1}
@attribute Key_Scheme {weka.classifiers.lazy.IBk}
@attribute Key_Scheme_options {'-K 5 -W 0 -E -F -A \"weka.core.neighboursearch.KDTree -A \\\"weka.core.EuclideanDistance -R 33-56,59 -V\\\" -S weka.core.neighboursearch.kdtrees.SlidingMidPointOfWidestSide -W 0.01 -L 40 -N\"','-K 5 -W 0 -E -I -A \"weka.core.neighboursearch.KDTree -A \\\"weka.core.EuclideanDistance -R 33-56,59 -V\\\" -S weka.core.neighboursearch.kdtrees.SlidingMidPointOfWidestSide -W 0.01 -L 40 -N\"','-K 5 -W 0 -E -I -A \"weka.core.neighboursearch.KDTree -A \\\"weka.core.EuclideanDistance -R 1,3-30,57,58,60,61 -V\\\" -S weka.core.neighboursearch.kdtrees.SlidingMidPointOfWidestSide -W 0.01 -L 40 -N\"'}
@attribute Key_Scheme_version_ID {-3080186098777067172}
@attribute Date_time numeric
@attribute Number_of_training_instances numeric
@attribute Number_of_testing_instances numeric
@attribute Mean_absolute_error numeric
@attribute Root_mean_squared_error numeric
@attribute Relative_absolute_error numeric
@attribute Root_relative_squared_error numeric
@attribute Correlation_coefficient numeric
@attribute SF_prior_entropy numeric
@attribute SF_scheme_entropy numeric
@attribute SF_entropy_gain numeric
@attribute SF_mean_prior_entropy numeric
@attribute SF_mean_scheme_entropy numeric
@attribute SF_mean_entropy_gain numeric
@attribute Elapsed_Time_training numeric
@attribute Elapsed_Time_testing numeric
@attribute UserCPU_Time_training numeric
@attribute UserCPU_Time_testing numeric
@attribute Serialized_Model_Size numeric
@attribute Serialized_Train_Set_Size numeric
@attribute Serialized_Test_Set_Size numeric
@attribute Coverage_of_Test_Cases_By_Regions numeric
@attribute Size_of_Predicted_Regions numeric
@attribute Summary string
@attribute measureTreeSize numeric
@attribute measureNumLeaves numeric
@attribute measureMaxDepth numeric

@data

train,1,weka.classifiers.lazy.IBk,'-K 5 -W 0 -E -F -A \"weka.core.neighboursearch.KDTree -A \\\"weka.core.EuclideanDistance -R 33-56,59 -V\\\" -S weka.core.neighboursearch.kdtrees.SlidingMidPointOfWidestSide -W 0.01 -L 40 -N\"',-3080186098777067172,20130406.2014,140081,72163,3.825588,33.800326,18.649552,26.277793,0.965603,?,?,?,?,?,?,8.161,95.895,7.04,88.64,257020777,73798884,38141934,?,?,?,57603,28802,101
train,1,weka.classifiers.lazy.IBk,'-K 5 -W 0 -E -I -A \"weka.core.neighboursearch.KDTree -A \\\"weka.core.EuclideanDistance -R 33-56,59 -V\\\" -S weka.core.neighboursearch.kdtrees.SlidingMidPointOfWidestSide -W 0.01 -L 40 -N\"',-3080186098777067172,20130406.2016,140081,72163,3.646273,33.071086,17.775403,25.710852,0.967008,?,?,?,?,?,?,8.528,97.689,7.11,89.16,257020777,73798884,38141934,?,?,?,57603,28802,101
train,1,weka.classifiers.lazy.IBk,'-K 5 -W 0 -E -I -A \"weka.core.neighboursearch.KDTree -A \\\"weka.core.EuclideanDistance -R 1,3-30,57,58,60,61 -V\\\" -S weka.core.neighboursearch.kdtrees.SlidingMidPointOfWidestSide -W 0.01 -L 40 -N\"',-3080186098777067172,20130406.2019,140081,72163,52.278219,91.744159,254.85375,71.325763,0.785819,?,?,?,?,?,?,7.919,170.975,6.92,155.71,257022199,73798884,38141934,?,?,?,57603,28802,101
